地理空間データのマッピング | Rを使った地理空間データの可視化と分析
…
## Fetching record 1-1320... (total: 1320 records)

 1

df_school_child

 1

## # A tibble: 1,320 x 11
##    tab_code 表章項目 cat01_code `学校数・学級数・児童数・教職… cat02_code 設置者別
##    <chr>    <chr>    <chr>      <chr>            <chr>      <chr>   
##  1 0000000… 学校数・学級数… 010        学校数-計        00000      計      
##  2 0000000… 学校数・学級数… 010        学校数-計        00000      計      
##  3 0000000… 学校数・学級数… 010        学校数-計        00000      計      
##  4 0000000… 学校数・学級数… 010        学校数-計        00000      計      
##  5 0000000… 学校数・学級数… 010        学校数-計        00000      計      
##  6 0000000… 学校数・学級数… 010        学校数-計        00000      計      
##  7 0000000… 学校数・学級数… 010        学校数-計        00000      計      
##  8 0000000… 学校数・学級数… 010        学校数-計        00000      計      
##  9 0000000… 学校数・学級数… 010        学校数-計        00000      計      
## 10 0000000… 学校数・学級数… 010        学校数-計        00000      計      
## # ... with 1,310 more rows, and 5 more variables: area_code <chr>,
## #   政令指定都市別 <chr>, time_code <chr>, `時間軸（年次）` <chr>,
## #   value <dbl>
…
